<mxfile host="app.diagrams.net" modified="2022-09-28T17:07:16.042Z" agent="5.0 (Windows NT 10.0; Win64; x64) AppleWebKit/537.36 (KHTML, like Gecko) Chrome/105.0.0.0 Safari/537.36" etag="YRfzn3hKcXNWOdImYyVh" version="20.3.7" type="gitlab">
  <diagram id="m2t4YTj919-u4bZjGHJe" name="Page-1">
    <mxGraphModel dx="782" dy="475" grid="1" gridSize="10" guides="1" tooltips="1" connect="1" arrows="1" fold="1" page="1" pageScale="1" pageWidth="850" pageHeight="1100" math="0" shadow="0">
      <root>
        <mxCell id="0" />
        <mxCell id="1" parent="0" />
        <mxCell id="4G-fyinyEYBgRY2cjMB_-4" value="" style="rounded=0;whiteSpace=wrap;html=1;fontSize=8;" vertex="1" parent="1">
          <mxGeometry x="40" y="40" width="740" height="250" as="geometry" />
        </mxCell>
        <mxCell id="4G-fyinyEYBgRY2cjMB_-5" value="" style="rounded=0;whiteSpace=wrap;html=1;" vertex="1" parent="1">
          <mxGeometry x="40" y="310" width="740" height="250" as="geometry" />
        </mxCell>
        <mxCell id="4G-fyinyEYBgRY2cjMB_-6" value="" style="rounded=0;whiteSpace=wrap;html=1;" vertex="1" parent="1">
          <mxGeometry x="40" y="580" width="740" height="330" as="geometry" />
        </mxCell>
        <mxCell id="4G-fyinyEYBgRY2cjMB_-9" value="" style="endArrow=none;html=1;rounded=0;exitX=0.003;exitY=0.161;exitDx=0;exitDy=0;exitPerimeter=0;entryX=1;entryY=0.161;entryDx=0;entryDy=0;entryPerimeter=0;" edge="1" parent="1" source="4G-fyinyEYBgRY2cjMB_-4" target="4G-fyinyEYBgRY2cjMB_-4">
          <mxGeometry width="50" height="50" relative="1" as="geometry">
            <mxPoint x="370" y="120" as="sourcePoint" />
            <mxPoint x="420" y="70" as="targetPoint" />
          </mxGeometry>
        </mxCell>
        <mxCell id="4G-fyinyEYBgRY2cjMB_-10" value="" style="endArrow=none;html=1;rounded=0;exitX=0.003;exitY=0.161;exitDx=0;exitDy=0;exitPerimeter=0;entryX=1;entryY=0.161;entryDx=0;entryDy=0;entryPerimeter=0;" edge="1" parent="1">
          <mxGeometry width="50" height="50" relative="1" as="geometry">
            <mxPoint x="42.22000000000003" y="250" as="sourcePoint" />
            <mxPoint x="780" y="250" as="targetPoint" />
          </mxGeometry>
        </mxCell>
        <mxCell id="4G-fyinyEYBgRY2cjMB_-11" value="" style="endArrow=none;html=1;rounded=0;exitX=0.003;exitY=0.161;exitDx=0;exitDy=0;exitPerimeter=0;entryX=1;entryY=0.161;entryDx=0;entryDy=0;entryPerimeter=0;" edge="1" parent="1">
          <mxGeometry width="50" height="50" relative="1" as="geometry">
            <mxPoint x="42.22000000000003" y="350" as="sourcePoint" />
            <mxPoint x="780" y="350" as="targetPoint" />
          </mxGeometry>
        </mxCell>
        <mxCell id="4G-fyinyEYBgRY2cjMB_-12" value="" style="endArrow=none;html=1;rounded=0;exitX=0.003;exitY=0.161;exitDx=0;exitDy=0;exitPerimeter=0;entryX=1;entryY=0.161;entryDx=0;entryDy=0;entryPerimeter=0;" edge="1" parent="1">
          <mxGeometry width="50" height="50" relative="1" as="geometry">
            <mxPoint x="40.00000000000003" y="520" as="sourcePoint" />
            <mxPoint x="777.78" y="520" as="targetPoint" />
          </mxGeometry>
        </mxCell>
        <mxCell id="4G-fyinyEYBgRY2cjMB_-13" value="" style="endArrow=none;html=1;rounded=0;exitX=0.003;exitY=0.161;exitDx=0;exitDy=0;exitPerimeter=0;entryX=1;entryY=0.161;entryDx=0;entryDy=0;entryPerimeter=0;" edge="1" parent="1">
          <mxGeometry width="50" height="50" relative="1" as="geometry">
            <mxPoint x="42.22000000000003" y="620" as="sourcePoint" />
            <mxPoint x="780" y="620" as="targetPoint" />
          </mxGeometry>
        </mxCell>
        <mxCell id="4G-fyinyEYBgRY2cjMB_-14" value="" style="endArrow=none;html=1;rounded=0;exitX=0.003;exitY=0.161;exitDx=0;exitDy=0;exitPerimeter=0;entryX=1;entryY=0.161;entryDx=0;entryDy=0;entryPerimeter=0;" edge="1" parent="1">
          <mxGeometry width="50" height="50" relative="1" as="geometry">
            <mxPoint x="41.11000000000003" y="870" as="sourcePoint" />
            <mxPoint x="778.89" y="870" as="targetPoint" />
          </mxGeometry>
        </mxCell>
        <mxCell id="4G-fyinyEYBgRY2cjMB_-15" value="" style="whiteSpace=wrap;html=1;aspect=fixed;" vertex="1" parent="1">
          <mxGeometry x="100" y="105" width="120" height="120" as="geometry" />
        </mxCell>
        <mxCell id="4G-fyinyEYBgRY2cjMB_-16" value="" style="whiteSpace=wrap;html=1;aspect=fixed;" vertex="1" parent="1">
          <mxGeometry x="340" y="105" width="120" height="120" as="geometry" />
        </mxCell>
        <mxCell id="4G-fyinyEYBgRY2cjMB_-17" value="" style="whiteSpace=wrap;html=1;aspect=fixed;" vertex="1" parent="1">
          <mxGeometry x="580" y="105" width="120" height="120" as="geometry" />
        </mxCell>
        <mxCell id="4G-fyinyEYBgRY2cjMB_-18" value="NEWS" style="rounded=0;whiteSpace=wrap;html=1;" vertex="1" parent="1">
          <mxGeometry x="150" y="130" width="60" height="20" as="geometry" />
        </mxCell>
        <mxCell id="4G-fyinyEYBgRY2cjMB_-19" value="DETAILS" style="rounded=0;whiteSpace=wrap;html=1;" vertex="1" parent="1">
          <mxGeometry x="120" y="190" width="60" height="20" as="geometry" />
        </mxCell>
        <mxCell id="4G-fyinyEYBgRY2cjMB_-20" value="NEWS" style="rounded=0;whiteSpace=wrap;html=1;" vertex="1" parent="1">
          <mxGeometry x="390" y="130" width="60" height="20" as="geometry" />
        </mxCell>
        <mxCell id="4G-fyinyEYBgRY2cjMB_-21" value="DETAILS" style="rounded=0;whiteSpace=wrap;html=1;" vertex="1" parent="1">
          <mxGeometry x="340" y="190" width="60" height="20" as="geometry" />
        </mxCell>
        <mxCell id="4G-fyinyEYBgRY2cjMB_-22" value="NEWS" style="rounded=0;whiteSpace=wrap;html=1;" vertex="1" parent="1">
          <mxGeometry x="630" y="130" width="60" height="20" as="geometry" />
        </mxCell>
        <mxCell id="4G-fyinyEYBgRY2cjMB_-23" value="DETAILS" style="rounded=0;whiteSpace=wrap;html=1;" vertex="1" parent="1">
          <mxGeometry x="590" y="200" width="60" height="20" as="geometry" />
        </mxCell>
        <mxCell id="4G-fyinyEYBgRY2cjMB_-24" value="ALL NEWS" style="rounded=0;whiteSpace=wrap;html=1;" vertex="1" parent="1">
          <mxGeometry x="40" y="50" width="90" height="20" as="geometry" />
        </mxCell>
        <mxCell id="4G-fyinyEYBgRY2cjMB_-25" value="LOGO" style="rounded=0;whiteSpace=wrap;html=1;" vertex="1" parent="1">
          <mxGeometry x="350" y="50" width="70" height="20" as="geometry" />
        </mxCell>
        <mxCell id="4G-fyinyEYBgRY2cjMB_-26" value="SING UP" style="rounded=0;whiteSpace=wrap;html=1;" vertex="1" parent="1">
          <mxGeometry x="680" y="50" width="90" height="20" as="geometry" />
        </mxCell>
        <mxCell id="4G-fyinyEYBgRY2cjMB_-27" value="LOGIN" style="rounded=0;whiteSpace=wrap;html=1;" vertex="1" parent="1">
          <mxGeometry x="590" y="50" width="80" height="20" as="geometry" />
        </mxCell>
        <mxCell id="4G-fyinyEYBgRY2cjMB_-28" value="&lt;font style=&quot;font-size: 8px;&quot;&gt;LOGO&lt;/font&gt;" style="rounded=0;whiteSpace=wrap;html=1;" vertex="1" parent="1">
          <mxGeometry x="55" y="260" width="55" height="10" as="geometry" />
        </mxCell>
        <mxCell id="4G-fyinyEYBgRY2cjMB_-29" value="Agile Software Management System" style="text;html=1;strokeColor=none;fillColor=none;align=center;verticalAlign=middle;whiteSpace=wrap;rounded=0;fontSize=8;" vertex="1" parent="1">
          <mxGeometry x="40" y="270" width="160" height="30" as="geometry" />
        </mxCell>
        <mxCell id="4G-fyinyEYBgRY2cjMB_-30" value="E-Pharmacist, Autumn Semester 2022" style="text;html=1;strokeColor=none;fillColor=none;align=center;verticalAlign=middle;whiteSpace=wrap;rounded=0;fontSize=8;" vertex="1" parent="1">
          <mxGeometry x="560" y="270" width="160" height="30" as="geometry" />
        </mxCell>
        <mxCell id="4G-fyinyEYBgRY2cjMB_-32" value="" style="shape=image;html=1;verticalAlign=top;verticalLabelPosition=bottom;labelBackgroundColor=#ffffff;imageAspect=0;aspect=fixed;image=https://cdn0.iconfinder.com/data/icons/phosphor-thin-vol-2/256/copyright-thin-128.png;fontSize=8;" vertex="1" parent="1">
          <mxGeometry x="560" y="280" width="10" height="10" as="geometry" />
        </mxCell>
        <mxCell id="4G-fyinyEYBgRY2cjMB_-35" value="ALL NEWS" style="rounded=0;whiteSpace=wrap;html=1;" vertex="1" parent="1">
          <mxGeometry x="50" y="320" width="90" height="20" as="geometry" />
        </mxCell>
        <mxCell id="4G-fyinyEYBgRY2cjMB_-36" value="LOGO" style="rounded=0;whiteSpace=wrap;html=1;" vertex="1" parent="1">
          <mxGeometry x="700" y="320" width="70" height="20" as="geometry" />
        </mxCell>
        <mxCell id="4G-fyinyEYBgRY2cjMB_-37" value="" style="rounded=0;whiteSpace=wrap;html=1;fontSize=8;" vertex="1" parent="1">
          <mxGeometry x="245" y="365" width="280" height="140" as="geometry" />
        </mxCell>
        <mxCell id="4G-fyinyEYBgRY2cjMB_-38" value="LOG INTO YOUR ACCOUNT" style="text;html=1;strokeColor=none;fillColor=none;align=center;verticalAlign=middle;whiteSpace=wrap;rounded=0;fontSize=8;fontStyle=1" vertex="1" parent="1">
          <mxGeometry x="305" y="365" width="130" height="30" as="geometry" />
        </mxCell>
        <mxCell id="4G-fyinyEYBgRY2cjMB_-39" value="Email address" style="text;html=1;strokeColor=none;fillColor=none;align=center;verticalAlign=middle;whiteSpace=wrap;rounded=0;fontSize=8;fontStyle=1" vertex="1" parent="1">
          <mxGeometry x="245" y="390" width="80" height="25" as="geometry" />
        </mxCell>
        <mxCell id="4G-fyinyEYBgRY2cjMB_-40" value="Password" style="text;html=1;strokeColor=none;fillColor=none;align=center;verticalAlign=middle;whiteSpace=wrap;rounded=0;fontSize=8;fontStyle=1" vertex="1" parent="1">
          <mxGeometry x="240" y="430" width="80" height="25" as="geometry" />
        </mxCell>
        <mxCell id="4G-fyinyEYBgRY2cjMB_-41" value="LOGIN" style="rounded=0;whiteSpace=wrap;html=1;fontSize=10;labelBackgroundColor=#CCE5FF;fillColor=#dae8fc;strokeColor=#6c8ebf;fontStyle=1" vertex="1" parent="1">
          <mxGeometry x="300" y="480" width="60" height="20" as="geometry" />
        </mxCell>
        <mxCell id="4G-fyinyEYBgRY2cjMB_-42" value="" style="rounded=0;whiteSpace=wrap;html=1;labelBackgroundColor=#99CCFF;fontSize=10;" vertex="1" parent="1">
          <mxGeometry x="260" y="415" width="200" height="15" as="geometry" />
        </mxCell>
        <mxCell id="4G-fyinyEYBgRY2cjMB_-43" value="" style="rounded=0;whiteSpace=wrap;html=1;labelBackgroundColor=#99CCFF;fontSize=10;" vertex="1" parent="1">
          <mxGeometry x="260" y="450" width="200" height="15" as="geometry" />
        </mxCell>
        <mxCell id="4G-fyinyEYBgRY2cjMB_-45" value="Agile Software Management System" style="text;html=1;strokeColor=none;fillColor=none;align=center;verticalAlign=middle;whiteSpace=wrap;rounded=0;fontSize=8;" vertex="1" parent="1">
          <mxGeometry x="40" y="540" width="160" height="30" as="geometry" />
        </mxCell>
        <mxCell id="4G-fyinyEYBgRY2cjMB_-46" value="E-Pharmacist, Autumn Semester 2022" style="text;html=1;strokeColor=none;fillColor=none;align=center;verticalAlign=middle;whiteSpace=wrap;rounded=0;fontSize=8;" vertex="1" parent="1">
          <mxGeometry x="570" y="540" width="160" height="30" as="geometry" />
        </mxCell>
        <mxCell id="4G-fyinyEYBgRY2cjMB_-47" value="" style="shape=image;html=1;verticalAlign=top;verticalLabelPosition=bottom;labelBackgroundColor=#ffffff;imageAspect=0;aspect=fixed;image=https://cdn0.iconfinder.com/data/icons/phosphor-thin-vol-2/256/copyright-thin-128.png;fontSize=8;" vertex="1" parent="1">
          <mxGeometry x="570" y="550" width="10" height="10" as="geometry" />
        </mxCell>
        <mxCell id="4G-fyinyEYBgRY2cjMB_-48" value="&lt;font style=&quot;font-size: 8px;&quot;&gt;LOGO&lt;/font&gt;" style="rounded=0;whiteSpace=wrap;html=1;" vertex="1" parent="1">
          <mxGeometry x="57.5" y="530" width="55" height="10" as="geometry" />
        </mxCell>
        <mxCell id="4G-fyinyEYBgRY2cjMB_-49" value="ALL NEWS" style="rounded=0;whiteSpace=wrap;html=1;" vertex="1" parent="1">
          <mxGeometry x="50" y="590" width="90" height="20" as="geometry" />
        </mxCell>
        <mxCell id="4G-fyinyEYBgRY2cjMB_-50" value="LOGO" style="rounded=0;whiteSpace=wrap;html=1;" vertex="1" parent="1">
          <mxGeometry x="700" y="590" width="70" height="20" as="geometry" />
        </mxCell>
        <mxCell id="4G-fyinyEYBgRY2cjMB_-51" value="&lt;font style=&quot;font-size: 8px;&quot;&gt;LOGO&lt;/font&gt;" style="rounded=0;whiteSpace=wrap;html=1;" vertex="1" parent="1">
          <mxGeometry x="57.5" y="880" width="55" height="10" as="geometry" />
        </mxCell>
        <mxCell id="4G-fyinyEYBgRY2cjMB_-52" value="E-Pharmacist, Autumn Semester 2022" style="text;html=1;strokeColor=none;fillColor=none;align=center;verticalAlign=middle;whiteSpace=wrap;rounded=0;fontSize=8;" vertex="1" parent="1">
          <mxGeometry x="580" y="890" width="160" height="30" as="geometry" />
        </mxCell>
        <mxCell id="4G-fyinyEYBgRY2cjMB_-53" value="" style="shape=image;html=1;verticalAlign=top;verticalLabelPosition=bottom;labelBackgroundColor=#ffffff;imageAspect=0;aspect=fixed;image=https://cdn0.iconfinder.com/data/icons/phosphor-thin-vol-2/256/copyright-thin-128.png;fontSize=8;" vertex="1" parent="1">
          <mxGeometry x="580" y="900" width="10" height="10" as="geometry" />
        </mxCell>
        <mxCell id="4G-fyinyEYBgRY2cjMB_-54" value="Agile Software Management System" style="text;html=1;strokeColor=none;fillColor=none;align=center;verticalAlign=middle;whiteSpace=wrap;rounded=0;fontSize=8;" vertex="1" parent="1">
          <mxGeometry x="40" y="890" width="160" height="30" as="geometry" />
        </mxCell>
        <mxCell id="4G-fyinyEYBgRY2cjMB_-55" value="" style="rounded=0;whiteSpace=wrap;html=1;fontSize=8;" vertex="1" parent="1">
          <mxGeometry x="230" y="630" width="280" height="230" as="geometry" />
        </mxCell>
        <mxCell id="4G-fyinyEYBgRY2cjMB_-56" value="CREATE A NEW ACCOUNT" style="text;html=1;strokeColor=none;fillColor=none;align=center;verticalAlign=middle;whiteSpace=wrap;rounded=0;fontSize=8;fontStyle=1" vertex="1" parent="1">
          <mxGeometry x="305" y="630" width="130" height="30" as="geometry" />
        </mxCell>
        <mxCell id="4G-fyinyEYBgRY2cjMB_-57" value="" style="rounded=0;whiteSpace=wrap;html=1;labelBackgroundColor=#99CCFF;fontSize=10;" vertex="1" parent="1">
          <mxGeometry x="260" y="675" width="200" height="15" as="geometry" />
        </mxCell>
        <mxCell id="4G-fyinyEYBgRY2cjMB_-58" value="" style="rounded=0;whiteSpace=wrap;html=1;labelBackgroundColor=#99CCFF;fontSize=10;" vertex="1" parent="1">
          <mxGeometry x="260" y="710" width="200" height="15" as="geometry" />
        </mxCell>
        <mxCell id="4G-fyinyEYBgRY2cjMB_-59" value="" style="rounded=0;whiteSpace=wrap;html=1;labelBackgroundColor=#99CCFF;fontSize=10;" vertex="1" parent="1">
          <mxGeometry x="260" y="740" width="200" height="15" as="geometry" />
        </mxCell>
        <mxCell id="4G-fyinyEYBgRY2cjMB_-60" value="" style="rounded=0;whiteSpace=wrap;html=1;labelBackgroundColor=#99CCFF;fontSize=10;" vertex="1" parent="1">
          <mxGeometry x="260" y="770" width="200" height="15" as="geometry" />
        </mxCell>
        <mxCell id="4G-fyinyEYBgRY2cjMB_-61" value="Email address" style="text;html=1;strokeColor=none;fillColor=none;align=center;verticalAlign=middle;whiteSpace=wrap;rounded=0;fontSize=8;fontStyle=1" vertex="1" parent="1">
          <mxGeometry x="245" y="685" width="80" height="25" as="geometry" />
        </mxCell>
        <mxCell id="4G-fyinyEYBgRY2cjMB_-62" value="Password" style="text;html=1;strokeColor=none;fillColor=none;align=center;verticalAlign=middle;whiteSpace=wrap;rounded=0;fontSize=8;fontStyle=1" vertex="1" parent="1">
          <mxGeometry x="240" y="717.5" width="80" height="25" as="geometry" />
        </mxCell>
        <mxCell id="4G-fyinyEYBgRY2cjMB_-63" value="Name" style="text;html=1;strokeColor=none;fillColor=none;align=center;verticalAlign=middle;whiteSpace=wrap;rounded=0;fontSize=8;fontStyle=1" vertex="1" parent="1">
          <mxGeometry x="230" y="650" width="80" height="25" as="geometry" />
        </mxCell>
        <mxCell id="4G-fyinyEYBgRY2cjMB_-64" value="Confirm Password" style="text;html=1;strokeColor=none;fillColor=none;align=center;verticalAlign=middle;whiteSpace=wrap;rounded=0;fontSize=8;fontStyle=1" vertex="1" parent="1">
          <mxGeometry x="250" y="750" width="80" height="25" as="geometry" />
        </mxCell>
        <mxCell id="4G-fyinyEYBgRY2cjMB_-67" value="LOGIN" style="rounded=0;whiteSpace=wrap;html=1;fontSize=10;labelBackgroundColor=#CCE5FF;fillColor=#dae8fc;strokeColor=#6c8ebf;fontStyle=1" vertex="1" parent="1">
          <mxGeometry x="265" y="835" width="60" height="20" as="geometry" />
        </mxCell>
        <mxCell id="4G-fyinyEYBgRY2cjMB_-70" value="Role" style="text;html=1;strokeColor=none;fillColor=none;align=center;verticalAlign=middle;whiteSpace=wrap;rounded=0;labelBackgroundColor=#FFFFFF;fontSize=10;fontStyle=1" vertex="1" parent="1">
          <mxGeometry x="240" y="785" width="60" height="30" as="geometry" />
        </mxCell>
        <mxCell id="4G-fyinyEYBgRY2cjMB_-71" value="User" style="text;html=1;strokeColor=none;fillColor=none;align=center;verticalAlign=middle;whiteSpace=wrap;rounded=0;labelBackgroundColor=#FFFFFF;fontSize=10;" vertex="1" parent="1">
          <mxGeometry x="260" y="810" width="50" height="20" as="geometry" />
        </mxCell>
        <mxCell id="4G-fyinyEYBgRY2cjMB_-72" value="Subject Matter Expert&amp;nbsp;" style="text;html=1;strokeColor=none;fillColor=none;align=center;verticalAlign=middle;whiteSpace=wrap;rounded=0;labelBackgroundColor=#FFFFFF;fontSize=10;" vertex="1" parent="1">
          <mxGeometry x="310" y="805" width="120" height="30" as="geometry" />
        </mxCell>
        <mxCell id="4G-fyinyEYBgRY2cjMB_-73" value="Pharmacist" style="text;html=1;strokeColor=none;fillColor=none;align=center;verticalAlign=middle;whiteSpace=wrap;rounded=0;labelBackgroundColor=#FFFFFF;fontSize=10;" vertex="1" parent="1">
          <mxGeometry x="420" y="805" width="120" height="30" as="geometry" />
        </mxCell>
        <mxCell id="4G-fyinyEYBgRY2cjMB_-74" value="" style="dashed=0;labelPosition=right;align=left;shape=mxgraph.gmdl.radiobutton;strokeColor=#B0B0B0;fillColor=none;strokeWidth=2;aspect=fixed;sketch=0;labelBackgroundColor=#FFFFFF;fontSize=10;" vertex="1" parent="1">
          <mxGeometry x="265" y="817" width="6" height="6" as="geometry" />
        </mxCell>
        <mxCell id="4G-fyinyEYBgRY2cjMB_-75" value="" style="dashed=0;labelPosition=right;align=left;shape=mxgraph.gmdl.radiobutton;strokeColor=#B0B0B0;fillColor=none;strokeWidth=2;aspect=fixed;sketch=0;labelBackgroundColor=#FFFFFF;fontSize=10;" vertex="1" parent="1">
          <mxGeometry x="444" y="817" width="6" height="6" as="geometry" />
        </mxCell>
        <mxCell id="4G-fyinyEYBgRY2cjMB_-76" value="" style="dashed=0;labelPosition=right;align=left;shape=mxgraph.gmdl.radiobutton;strokeColor=#B0B0B0;fillColor=none;strokeWidth=2;aspect=fixed;sketch=0;labelBackgroundColor=#FFFFFF;fontSize=10;" vertex="1" parent="1">
          <mxGeometry x="310" y="817" width="6" height="6" as="geometry" />
        </mxCell>
      </root>
    </mxGraphModel>
  </diagram>
</mxfile>
